{
    "src_folders": [
        "tests"
    ],
    "webdriver": {
        "start_process": true,
        "server_path": "node_modules/.bin/geckodriver"
    },
    "test_settings": {
        "default": {
            "desiredCapabilities": {
                "browserName": "firefox",
                "acceptInsecureCerts": true,
                "alwaysMatch": {
                    "moz:firefoxOptions": {
                        "args": [
                            "-headless"
                        ]
                    }
                }
            }
        }
    }
}
